{
    "interactionModel": {
        "languageModel": {
            "invocationName": "aircloud",
            "intents": [
                {
                    "name": "searchDevices",
                    "slots": [],
                    "samples": [
                        "Cerca dispositivi",
                        "Cerca sensori",
                        "Ricerca dispositivi",
                        "Ricerca sensori",
                        "Avvia la ricerca",
                        "Chiedi a aircloud di cercare dispositivi"
                    ]
                },
                {
                    "name": "getData",
                    "slots": [
                        {
                            "name": "sensorType",
                            "type": "SENSORS"
                        },
                        {
                            "name": "sensorPosition",
                            "type": "STANZE_DISPONIBILI"
                        }
                    ],
                    "samples": [
                        "qual'è la {sensorType} in {sensorPosition}",
                        "la {sensorType} in {sensorPosition}",
                        "vorrei sapere la {sensorType} in {sensorPosition}",
                        "vorrei la {sensorType} in {sensorPosition}",
                        "dimmi la {sensorType} in {sensorPosition}",
                        "com'è la {sensorType} in {sensorPosition}",
                        "qual'è il {sensorType} in {sensorPosition}",
                        "il {sensorType} in {sensorPosition}",
                        "vorrei sapere il {sensorType} in {sensorPosition}",
                        "vorrei il {sensorType} in {sensorPosition}",
                        "dimmi il {sensorType} in {sensorPosition}",
                        "com'è il {sensorType} in {sensorPosition}"
                    ]
                },
                {
                    "name": "getRoomSituation",
                    "slots": [
                        {
                            "name": "sensorPosition",
                            "type": "STANZE_DISPONIBILI"
                        }
                    ],
                    "samples": [
                        "dimmi la situazione in {sensor position}",
                        "la situazione in {sensor position}",
                        "com'è la situazione in {sensor position}",
                        "qual'è la situazione in {sensor position}",
                        "come va in in {sensor position}"
                    ]
                }
            ],
            "types": [
                {
                    "name": "SENSORS",
                    "values": [
                        {
                            "name": {
                                "value": "temperatura"
                            }
                        },
                        {
                            "name": {
                                "value": "umidità"
                            }
                        },
                        {
                            "name": {
                                "value": "CO2"
                            }
                        },
                        {
                            "name": {
                                "value": "pm10"
                            }
                        },
                        {
                            "name": {
                                "value": "pm25"
                            }
                        },
                        {
                            "name": {
                                "value": "metano"
                            }
                        },
                        {
                            "name": {
                                "value": "VCO"
                            }
                        }
                    ]
                },
                {
                    "name": "STANZE_DISPONIBILI",
                    "values": [
                        {
                            "name": {
                                "value": "salotto",
                                "synonyms": [
                                    "sala da pranzo",
                                    "sala",
                                    "salone",
                                    "soggiorno"
                                ]
                            }
                        },
                        {
                            "name": {
                                "value": "cucina",
                                "synonyms": [
                                    "dispensa"
                                ]
                            }
                        },
                        {
                            "name": {
                                "value": "bagno"
                            }
                        },
                        {
                            "name": {
                                "value": "camera da letto"
                            }
                        },
                        {
                            "name": {
                                "value": "sgabuzzino"
                            }
                        },
                        {
                            "name": {
                                "value": "garage"
                            }
                        },
                        {
                            "name": {
                                "value": "soffitta"
                            }
                        }
                    ]
                }
            ]
        }
    }
}